<?xml version="1.0" encoding="UTF-8" standalone="no"?>
<svg width="13px" height="30px" viewBox="0 0 13 30" version="1.1" xmlns="http://www.w3.org/2000/svg" xmlns:xlink="http://www.w3.org/1999/xlink" xmlns:sketch="http://www.bohemiancoding.com/sketch/ns">
    <!-- Generator: Sketch 3.4.2 (15857) - http://www.bohemiancoding.com/sketch -->
    <title>carousel-arrow-right</title>
    <desc>Created with Sketch.</desc>
    <defs></defs>
    <g id="Retail" stroke="none" stroke-width="1" fill="none" fill-rule="evenodd" sketch:type="MSPage">
        <g id="Product-Page" sketch:type="MSArtboardGroup" transform="translate(-1375.000000, -1023.000000)" fill="#A4A9AD">
            <g id="Scale-Shots" sketch:type="MSLayerGroup" transform="translate(34.000000, 843.000000)">
                <g id="Rectangle-21-+-›" transform="translate(1318.000000, 1.000000)" sketch:type="MSShapeGroup">
                    <path d="M23,206.60355 L25.088,209 L35.6,194 L25.088,179 L23,181.39645 L31.712,194 L23,206.60355 Z" id="carousel-arrow-right"></path>
                </g>
            </g>
        </g>
    </g>
</svg>